{
   "instanceId":  "{{instanceId}}",
   "containerId": "F5716E1C-1B22-48B6-A76C-2BF769D4CC1B",
   "values": {
      "FecEstCre":"",
      "EfeBanEva":"",
      "EfeBanAntEva":"",
      "ValTotGarCod":"",
      "CueCobEva":"",
      "CueCobAntEva":"",
      "IncCueCobEva":"",
      "IncCueCobAntEva":"",
      "InvAgrPec": [
         {
               "Cantidad":"",
               "Unidad":"",
               "Despricion":"",
               "PrecioCompraUnidad":"",
               "PrecioVentaUnidad":"",
               "MargenUtilidad":"",
               "ValorTotal":""
            },
            {
               "Cantidad":"",
               "Unidad":"",
               "Despricion":"",
               "PrecioCompraUnidad":"",
               "PrecioVentaUnidad":"",
               "MargenUtilidad":"",
               "ValorTotal":""
            }
      ],
      "InvAgrPecAntEva": [
         {
               "Cantidad":"",
               "Unidad":"",
               "Despricion":"",
               "PrecioCompraUnidad":"",
               "PrecioVentaUnidad":"",
               "MargenUtilidad":"",
               "ValorTotal":""
            },
            {
               "Cantidad":"",
               "Unidad":"",
               "Despricion":"",
               "PrecioCompraUnidad":"",
               "PrecioVentaUnidad":"",
               "MargenUtilidad":"",
               "ValorTotal":""
            }
      ],
      "InvPecEspMen": [
         {
               "Cantidad":"",
               "Unidad":"",
               "Despricion":"",
               "PrecioCompraUnidad":"",
               "PrecioVentaUnidad":"",
               "MargenUtilidad":"",
               "ValorTotal":""
            },
            {
               "Cantidad":"",
               "Unidad":"",
               "Despricion":"",
               "PrecioCompraUnidad":"",
               "PrecioVentaUnidad":"",
               "MargenUtilidad":"",
               "ValorTotal":""
            }
      ],
      "InvPecEspMenAntEva": [
         {
               "Cantidad":"",
               "Unidad":"",
               "Despricion":"",
               "PrecioCompraUnidad":"",
               "PrecioVentaUnidad":"",
               "MargenUtilidad":"",
               "ValorTotal":""
            },
            {
               "Cantidad":"",
               "Unidad":"",
               "Despricion":"",
               "PrecioCompraUnidad":"",
               "PrecioVentaUnidad":"",
               "MargenUtilidad":"",
               "ValorTotal":""
            }
      ],
      "InvMerCom": [
         {
               "Cantidad":"",
               "Unidad":"",
               "Despricion":"",
               "PrecioCompraUnidad":"",
               "PrecioVentaUnidad":"",
               "MargenUtilidad":"",
               "ValorTotal":""
            },
            {
               "Cantidad":"",
               "Unidad":"",
               "Despricion":"",
               "PrecioCompraUnidad":"",
               "PrecioVentaUnidad":"",
               "MargenUtilidad":"",
               "ValorTotal":""
            }
      ],
      "InvMerComAntEva": [
         {
               "Cantidad":"",
               "Unidad":"",
               "Despricion":"",
               "PrecioCompraUnidad":"",
               "PrecioVentaUnidad":"",
               "MargenUtilidad":"",
               "ValorTotal":""
            },
            {
               "Cantidad":"",
               "Unidad":"",
               "Despricion":"",
               "PrecioCompraUnidad":"",
               "PrecioVentaUnidad":"",
               "MargenUtilidad":"",
               "ValorTotal":""
            }
      ],
      "InvMatPri": [
         {
               "Cantidad":"",
               "Unidad":"",
               "Despricion":"",
               "PrecioCompraUnidad":"",
               "PrecioVentaUnidad":"",
               "MargenUtilidad":"",
               "ValorTotal":""
            },
            {
               "Cantidad":"",
               "Unidad":"",
               "Despricion":"",
               "PrecioCompraUnidad":"",
               "PrecioVentaUnidad":"",
               "MargenUtilidad":"",
               "ValorTotal":""
            }
      ],
      "InvMatPri": [
         {
               "Cantidad":"",
               "Unidad":"",
               "Despricion":"",
               "PrecioCompraUnidad":"",
               "PrecioVentaUnidad":"",
               "MargenUtilidad":"",
               "ValorTotal":""
            },
            {
               "Cantidad":"",
               "Unidad":"",
               "Despricion":"",
               "PrecioCompraUnidad":"",
               "PrecioVentaUnidad":"",
               "MargenUtilidad":"",
               "ValorTotal":""
            }
      ],
      "InvMatPriAntEva": [
         {
               "Cantidad":"",
               "Unidad":"",
               "Despricion":"",
               "PrecioCompraUnidad":"",
               "PrecioVentaUnidad":"",
               "MargenUtilidad":"",
               "ValorTotal":""
            },
            {
               "Cantidad":"",
               "Unidad":"",
               "Despricion":"",
               "PrecioCompraUnidad":"",
               "PrecioVentaUnidad":"",
               "MargenUtilidad":"",
               "ValorTotal":""
            }
      ],
      "InvPtoTer": [
         {
               "Cantidad":"",
               "Unidad":"",
               "Despricion":"",
               "PrecioCompraUnidad":"",
               "PrecioVentaUnidad":"",
               "MargenUtilidad":"",
               "ValorTotal":""
            },
            {
               "Cantidad":"",
               "Unidad":"",
               "Despricion":"",
               "PrecioCompraUnidad":"",
               "PrecioVentaUnidad":"",
               "MargenUtilidad":"",
               "ValorTotal":""
            }
      ],
      "InvPtoTerAntEva": [
         {
               "Cantidad":"",
               "Unidad":"",
               "Despricion":"",
               "PrecioCompraUnidad":"",
               "PrecioVentaUnidad":"",
               "MargenUtilidad":"",
               "ValorTotal":""
            },
            {
               "Cantidad":"",
               "Unidad":"",
               "Despricion":"",
               "PrecioCompraUnidad":"",
               "PrecioVentaUnidad":"",
               "MargenUtilidad":"",
               "ValorTotal":""
            }
      ],
      "TotInvEva":"",
      "TotInvPorEva":"",
      "TotActCorEva":"",
      "TotActCorPorEva":"",
      "TotActFijEva":"",
      "TotActFijPorEva":"",
      "TotActEva":"",
      "TotActPorEva":"",
      "CreProEva":"",
      "SalCreProEva":"",
      "CreFunCorPlaEva":"",
      "PasCorEva":""

   }
}